"id","Device Name","Protocol","Interface","Port"
1,PowerMeterA,Modbus Master,TCP/IP,eth1
2,PowerMeterB1,Modbus Master,Serial,RS485
3,PowerMeterB2,Modbus Master,Serial,RS485
4,PowerMeterC,Modbus Master,Serial,RS232
5,SlaveRTU-A,DNP3 Master ,TCP/IP,eth1
6,SlaveRTU-B,DNP3 Master ,TCP/IP,eth1
7,DNP3 Master Station,DNP3 Slave,TCP/IP,eth0
8,IEC Master Station,DNP3 Slave,TCP/IP,eth0
